<svg width="776" height="410" viewBox="0 0 776 410" fill="none" xmlns="http://www.w3.org/2000/svg">
<path d="M869 227.5C869 467.468 674.468 662 434.5 662C194.532 662 0 467.468 0 227.5C0 -12.4677 194.532 -207 434.5 -207C674.468 -207 869 -12.4677 869 227.5ZM173.8 227.5C173.8 371.481 290.519 488.2 434.5 488.2C578.481 488.2 695.2 371.481 695.2 227.5C695.2 83.5193 578.481 -33.2 434.5 -33.2C290.519 -33.2 173.8 83.5193 173.8 227.5Z" fill="#DF8720"/>
</svg>
